@startuml

title __EXTRACTION's Class Diagram__\n

  namespace java {
    namespace extraction {
      class java.extraction.AttributesExtraction {
          {static} + checkCurrency()
          {static} + countDistinctWords()
          {static} + countLongWords()
          {static} + countMediumWords()
          {static} + countPunctuationMarks()
          {static} + countShortWords()
          {static} + countUppercaseWords()
          {static} + isTextFormal()
          {static} + metricInText()
          {static} + mostCommonWordFromRarely()
      }
    }
  }
  



right footer


PlantUML diagram generated by SketchIt! (https://bitbucket.org/pmesmeur/sketch.it)
For more information about this tool, please contact philippe.mesmeur@gmail.com
endfooter

@enduml
